{
  "archiveCount": 1,
  "cursor": 0,
  "totalPages": 1730,
  "totalClevelCount": 17298,
  "totalDescriptionCount": 0,
  "totalHits": 17298,
  "archives": [],
  "cLevels": [
    {
      "path": "@Deel I",
      "unitID": "Deel I",
      "label": "Heren Zeventien en kamer Amsterdam",
      "hubID": "NL-HaNA_1.04.02_Deel I",
      "sortKey": 1,
      "searchAfter": "1,@Deel I",
      "start": 0
    },
    {
      "path": "@Deel I~Deel I/A",
      "unitID": "Deel I/A",
      "label": "OCTROOIEN",
      "hubID": "NL-HaNA_1.04.02_Deel I~Deel I-A",
      "sortKey": 2,
      "searchAfter": "2,@Deel I~Deel I/A",
      "start": 1
    },
    {
      "path": "@Deel I~Deel I/A~1",
      "unitID": "1",
      "label": "Octrooi verleend door de Staten-Generaal betreffende  de alleenhandel ten oosten van Kaap de Goede Hoop en ten westen van de Straat  van Magallanes voor de duur van 21 jaar",
      "hubID": "NL-HaNA_1.04.02_Deel I~Deel I-A~1",
      "sortKey": 3,
      "searchAfter": "3,@Deel I~Deel I/A~1",
      "start": 2
    },
    {
      "path": "@Deel I~Deel I/A~2",
      "unitID": "2",
      "label": "Octrooiverlenging verleend door de Staten-Generaal  voor een periode van 21 jaar, met in het octrooi aangebrachte  veranderingen",
      "hubID": "NL-HaNA_1.04.02_Deel I~Deel I-A~2",
      "sortKey": 4,
      "searchAfter": "4,@Deel I~Deel I/A~2",
      "start": 3
    },
    {
      "path": "@Deel I~Deel I/A~3",
      "unitID": "3",
      "label": "Ordonnantie van de Staten-Generaal betreffende een  aanvulling op de verlenging van het octrooi in 1622",
      "hubID": "NL-HaNA_1.04.02_Deel I~Deel I-A~3",
      "sortKey": 5,
      "searchAfter": "5,@Deel I~Deel I/A~3",
      "start": 4
    },
    {
      "path": "@Deel I~Deel I/A~4",
      "unitID": "4",
      "label": "Octrooiverlenging verleend door de Staten-Generaal  voor een periode van 25 jaar",
      "hubID": "NL-HaNA_1.04.02_Deel I~Deel I-A~4",
      "sortKey": 6,
      "searchAfter": "6,@Deel I~Deel I/A~4",
      "start": 5
    },
    {
      "path": "@Deel I~Deel I/A~5",
      "unitID": "5",
      "label": "Octrooiverlenging verleend door de Staten-Generaal tot  het jaar 1700",
      "hubID": "NL-HaNA_1.04.02_Deel I~Deel I-A~5",
      "sortKey": 7,
      "searchAfter": "7,@Deel I~Deel I/A~5",
      "start": 6
    },
    {
      "path": "@Deel I~Deel I/A~6",
      "unitID": "6",
      "label": "Octrooiverlenging verleend door de Staten-Generaal  voor een periode van 40 jaar, ingaand in 1700",
      "hubID": "NL-HaNA_1.04.02_Deel I~Deel I-A~6",
      "sortKey": 8,
      "searchAfter": "8,@Deel I~Deel I/A~6",
      "start": 7
    },
    {
      "path": "@Deel I~Deel I/A~7",
      "unitID": "7",
      "label": "Octrooi verleend door de Staten-Generaal in 1602, met  verlenging van 1696. Gedrukt",
      "hubID": "NL-HaNA_1.04.02_Deel I~Deel I-A~7",
      "sortKey": 9,
      "searchAfter": "9,@Deel I~Deel I/A~7",
      "start": 8
    },
    {
      "path": "@Deel I~Deel I/A~8",
      "unitID": "8",
      "label": "Plakkaat van de Staten-Generaal tegen inbreuken op het  octrooi. Gedrukt",
      "hubID": "NL-HaNA_1.04.02_Deel I~Deel I-A~8",
      "sortKey": 10,
      "searchAfter": "10,@Deel I~Deel I/A~8",
      "start": 9
    }
  ]
}
